%!PS-Adobe-3.0 EPSF-3.0
%%Creator: cairo 1.10.2 (http://cairographics.org)
%%CreationDate: Wed Jan  7 09:35:59 2015
%%Pages: 1
%%BoundingBox: 0 -1 310 349
%%DocumentData: Clean7Bit
%%LanguageLevel: 2
%%EndComments
%%BeginProlog
/cairo_eps_state save def
/dict_count countdictstack def
/op_count count 1 sub def
userdict begin
/q { gsave } bind def
/Q { grestore } bind def
/cm { 6 array astore concat } bind def
/w { setlinewidth } bind def
/J { setlinecap } bind def
/j { setlinejoin } bind def
/M { setmiterlimit } bind def
/d { setdash } bind def
/m { moveto } bind def
/l { lineto } bind def
/c { curveto } bind def
/h { closepath } bind def
/re { exch dup neg 3 1 roll 5 3 roll moveto 0 rlineto
      0 exch rlineto 0 rlineto closepath } bind def
/S { stroke } bind def
/f { fill } bind def
/f* { eofill } bind def
/n { newpath } bind def
/W { clip } bind def
/W* { eoclip } bind def
/BT { } bind def
/ET { } bind def
/pdfmark where { pop globaldict /?pdfmark /exec load put }
    { globaldict begin /?pdfmark /pop load def /pdfmark
    /cleartomark load def end } ifelse
/BDC { mark 3 1 roll /BDC pdfmark } bind def
/EMC { mark /EMC pdfmark } bind def
/cairo_store_point { /cairo_point_y exch def /cairo_point_x exch def } def
/Tj { show currentpoint cairo_store_point } bind def
/TJ {
  {
    dup
    type /stringtype eq
    { show } { -0.001 mul 0 cairo_font_matrix dtransform rmoveto } ifelse
  } forall
  currentpoint cairo_store_point
} bind def
/cairo_selectfont { cairo_font_matrix aload pop pop pop 0 0 6 array astore
    cairo_font exch selectfont cairo_point_x cairo_point_y moveto } bind def
/Tf { pop /cairo_font exch def /cairo_font_matrix where
      { pop cairo_selectfont } if } bind def
/Td { matrix translate cairo_font_matrix matrix concatmatrix dup
      /cairo_font_matrix exch def dup 4 get exch 5 get cairo_store_point
      /cairo_font where { pop cairo_selectfont } if } bind def
/Tm { 2 copy 8 2 roll 6 array astore /cairo_font_matrix exch def
      cairo_store_point /cairo_font where { pop cairo_selectfont } if } bind def
/g { setgray } bind def
/rg { setrgbcolor } bind def
/d1 { setcachedevice } bind def
%%EndProlog
%%Page: 1 1
%%BeginPageSetup
%%PageBoundingBox: 0 -1 310 349
%%EndPageSetup
q 0 -1 310 350 rectclip q
0 348.037 310 -349 re W n
0 g
142.16 183.689 m 136.957 185.506 134.785 186.619 134.785 188.799 c 
134.785 192.685 138.801 193.713 140.926 193.713 c 145.004 193.713 
145.84 192.06 145.84 189.576 c 145.84 189.384 l 145.84 187.599 147.289 
186.15 149.074 186.15 c 149.906 186.15 l 151.688 186.15 153.137 187.595 
153.137 189.381 c 153.145 194.99 l 153.145 195.896 152.762 196.759 
152.098 197.373 c 150.07 199.232 147.441 200.267 144.094 200.509 c 
144.094 204.189 l 144.094 205.974 142.645 207.424 140.863 207.424 c 
140.082 207.424 l 138.301 207.424 136.852 205.974 136.852 204.189 c 
136.852 200.256 l 131.973 198.908 127.348 194.459 127.348 188.541 c 
127.348 181.486 133.57 179.357 139.059 177.478 c 144.754 175.525 
147.133 174.259 147.133 171.47 c 147.133 167.439 142.945 166.361 
140.473 166.361 c 137.973 166.361 134.879 167.076 134.043 168.252 c 
133.68 168.775 133.43 169.791 133.312 171.279 c 133.176 172.959 131.773 
174.252 130.09 174.252 c 129.434 174.252 l 128.57 174.252 127.746 
173.908 127.137 173.295 c 126.531 172.681 126.191 171.853 126.199 
170.994 c 126.25 164.634 l 126.262 163.193 127.223 161.935 128.609 
161.545 c 128.75 161.506 128.938 161.463 129.125 161.424 c 129.281 
161.388 l 132.16 160.584 134.77 159.888 136.852 159.623 c 136.852 
154.271 l 136.852 152.486 138.301 151.041 140.086 151.041 c 140.863 
151.041 l 142.648 151.041 144.094 152.486 144.094 154.271 c 144.094 
159.74 l 149.469 160.873 154.57 165.326 154.57 171.599 c 154.57 179.341 
147.688 181.752 142.16 183.689 c h
142.16 183.689 m f
309.137 288.103 m 309.137 348.037 l 292.18 340.603 260.277 329.97 
245.43 329.123 c 230.582 328.279 160.809 339.236 141.906 334.506 c 
126.695 330.697 43.164 267.838 18.246 250.502 c -21.531 222.83 13.672 
218.392 30.375 224.795 c 47.18 231.236 101.344 261.49 101.344 261.49 c 
101.172 255.361 102.098 246.685 107.582 237.314 c 107.582 237.314 
113.781 228.623 121.211 220.115 c 105.18 212.806 94.008 196.634 94.008 
177.896 c 94.008 161.982 102.07 147.912 114.324 139.556 c 34.16 139.556 
l 29.719 139.556 26.121 135.959 26.121 131.517 c 26.121 8.041 l 26.121 
3.599 29.719 0.002 34.16 0.002 c 246.609 0.002 l 251.047 0.002 254.648 
3.599 254.648 8.041 c 254.648 131.517 l 254.648 135.959 251.047 139.556 
246.609 139.556 c 166.445 139.556 l 178.699 147.912 186.762 161.978 
186.762 177.896 c 186.762 189.529 182.445 200.17 175.348 208.318 c 
175.262 208.388 175.188 208.466 175.113 208.545 c 186.703 214.318 
198.879 224.666 228.363 236.724 c 278.02 257.037 294.84 280.103 309.137 
288.103 c h
172.328 241.08 m 163.02 234.509 156.672 228.095 152.965 222.529 c 
150.875 223.119 148.73 223.564 146.535 223.861 c 144.613 230.072 
141.316 238.244 136.293 249.064 c 136.293 249.064 133.988 254.486 
134.75 260.97 c 136.645 268.216 143.188 275.99 161.68 278.373 c 192.816 
282.392 197.234 266.65 183.164 250.263 c 180.16 247.15 176.535 244.049 
172.328 241.08 c h
176.711 120.4 m 181.125 120.4 184.719 116.81 184.719 112.392 c 184.719 
107.974 181.129 104.381 176.711 104.381 c 104.059 104.381 l 99.641 
104.381 96.047 107.974 96.047 112.392 c 96.047 116.81 99.641 120.4 
104.059 120.4 c h
140.383 143.736 m 121.547 143.736 106.219 159.06 106.219 177.9 c 
106.219 196.736 121.547 212.06 140.383 212.06 c 143.164 212.06 145.863 
211.72 148.449 211.091 c 148.445 205.677 152.66 202.588 159.609 203.275 
c 160.676 203.377 161.711 203.525 162.723 203.713 c 169.957 197.443 
174.547 188.201 174.547 177.9 c 174.547 159.06 159.223 143.736 140.383 
143.736 c h
140.383 143.736 m f
Q Q
showpage
%%Trailer
count op_count sub {pop} repeat
countdictstack dict_count sub {end} repeat
cairo_eps_state restore
%%EOF
